{
  "host": "localhost",
  "port": "${process.env.PORT || 1030}",
  "proxy": {
    "enabled": false
  },
  "autoReload": {
    "enabled": false
  },
  "cron": {
    "enabled": true
  },
  "admin": {
    "autoOpen": false
  }
}
