{
  "defaultConnection": "default",
  "connections": {
    "default": {
      "connector": "strapi-hook-mongoose",
      "settings": {
        "client": "mongo",
        "host": "127.0.0.1",
        "srv": false,
        "port": 27017,
        "database": "message-saver",
        "username": "",
        "password": ""
      },
      "options": {
        "authenticationDatabase": "",
        "ssl": false
      }
    }
  }
}
